%YAML 1.1
%TAG !u! tag:unity3d.com,2011:
--- !u!114 &11400000
MonoBehaviour:
  m_ObjectHideFlags: 0
  m_CorrespondingSourceObject: {fileID: 0}
  m_PrefabInstance: {fileID: 0}
  m_PrefabAsset: {fileID: 0}
  m_GameObject: {fileID: 0}
  m_Enabled: 1
  m_EditorHideFlags: 0
  m_Script: {fileID: 11500000, guid: 2a34a5e6584a6ee44b44293f293658fa, type: 3}
  m_Name: Evolution_3
  m_EditorClassIdentifier: 
  evolutionStage: 3
  evolutionIncrementalValue: 10000
  evolutionSpeedDivider: 10000000
  evolutionDevolutionSpeed: 100
  evolutionSprite: {fileID: 21300000, guid: ac76854d6e43a5a40866f9aa18bfa696, type: 3}
  descriptionOfEvolution: 
